1688.0 176 733 588 251 225 480 867 796 681 233 235 1030 517 320 125 632 504 586 891 645 79 89 619 17 289 1037 474 279 138 788 747 943 836 746 826 569 680 10 960 579 50 498 263 578 74 899 454 9 533 413 885 311 321 273 918 208 676 879 831 954 380 461 590 428 1027 531 512 1011 596 712 215 618 15 252 362 964 76 187 348 611 154 597 169 666 497 972 558 288 262 671 799 492 995 783 639 111 340 548 1025 30 130 679 820 526 456 344 690 399 195 487 620 188 255 529 334 222 1035 451 194 827 411 223 305 1 433 929 228 192 92 731 797 453 852 441 107 189 727 938 129 713 923 496 760 376 856 81 739 901 184 686 905 896 877 408 928 748 875 729 705 953 245 302 347 99 143 310 841 920 212 966 139 651 219 648 68 57 591 
8107.0 142 575 59 914 922 910 625 751 331 95 174 357 91 1020 435 974 342 213 883 949 452 660 987 605 22 350 945 892 114 437 714 368 601 927 1001 1039 275 16 761 412 363 911 682 726 744 587 670 249 354 589 621 961 776 491 333 593 455 58 926 250 136 218 600 415 490 584 308 941 292 925 985 282 142 789 567 975 473 1008 211 398 583 329 921 155 1026 785 323 488 446 267 403 373 148 234 895 1013 698 35 300 470 210 630 181 238 514 389 655 830 283 239 1003 457 104 230 520 122 812 168 489 85 740 778 749 54 825 198 149 968 672 969 120 793 668 661 536 246 721 182 963 1031 429 39 594 
6924.0 275 834 51 677 75 803 88 294 388 345 819 957 543 45 551 689 674 553 72 447 688 462 199 791 675 992 206 664 161 872 509 718 422 98 994 384 701 86 657 719 297 1005 868 313 191 158 678 724 1029 256 369 864 846 522 73 913 197 1032 636 247 217 742 607 640 1038 870 186 83 317 768 839 259 704 1019 13 566 560 814 359 753 794 647 124 386 173 1041 425 986 754 824 352 438 507 978 781 568 889 764 34 617 159 265 62 100 430 730 133 157 82 306 442 817 862 530 353 118 32 996 904 805 756 304 18 873 643 513 804 886 722 264 485 67 393 108 423 765 881 162 295 743 417 1036 4 773 669 145 692 772 105 693 762 738 26 166 322 811 849 939 937 131 207 508 392 728 316 116 697 691 644 483 786 257 999 231 798 970 959 301 469 505 631 828 77 604 915 482 406 226 19 324 942 708 1021 56 577 165 315 858 25 848 468 1010 832 440 90 29 710 63 903 763 561 372 287 102 503 467 401 177 610 171 227 955 542 204 395 127 349 919 151 991 38 14 364 277 21 1040 343 649 170 338 502 801 736 833 260 203 510 327 410 494 328 869 325 865 950 581 851 351 612 1016 336 113 627 821 946 616 244 141 988 752 853 521 394 377 106 254 
1896.0 63 167 699 71 663 209 1009 272 893 559 486 850 11 444 409 779 221 924 813 52 732 802 241 285 525 180 931 845 906 573 69 383 882 989 930 782 121 132 385 330 629 750 572 646 546 787 652 829 303 24 3 547 101 472 1024 807 549 608 450 493 96 119 983 665 
34862.0 386 476 860 458 176 759 659 42 884 977 539 160 463 840 528 1015 237 623 55 193 613 309 80 982 140 857 361 702 871 156 477 147 624 443 242 109 296 534 402 70 511 967 628 716 842 571 516 519 951 243 1000 720 397 784 7 41 484 683 537 214 947 196 46 524 606 673 319 374 135 445 137 44 365 585 523 876 471 980 274 745 993 202 557 614 545 5 314 757 378 635 271 932 898 766 550 339 281 998 178 806 544 146 418 427 1006 758 843 66 934 426 150 60 815 695 31 299 518 126 421 1022 312 535 183 642 97 973 163 153 965 958 466 990 582 897 65 633 532 261 615 36 387 460 598 997 570 332 940 838 134 236 307 360 1004 53 800 595 414 717 229 248 641 580 878 48 527 232 436 685 318 366 962 874 541 880 809 971 723 725 375 424 6 1028 771 268 475 420 200 205 603 175 84 984 12 863 284 684 270 654 555 64 854 792 43 916 500 419 700 837 396 367 637 431 1012 28 405 948 400 935 49 40 563 808 956 61 103 499 556 23 847 952 790 128 755 185 112 715 515 293 201 326 694 626 936 269 1002 866 859 298 741 599 341 667 337 777 565 622 27 258 650 816 822 696 780 1007 1017 278 609 240 552 382 770 216 709 687 774 933 47 638 656 93 8 909 94 775 115 439 78 37 290 890 564 110 735 1033 707 538 734 888 506 358 190 767 346 894 172 381 220 658 224 887 554 432 280 335 818 540 404 286 1023 144 844 117 434 390 902 592 823 481 355 448 370 152 769 662 900 266 87 855 465 356 276 1034 416 908 391 981 574 810 912 711 2 706 0 634 835 464 703 459 449 795 602 976 861 1018 123 33 20 562 979 479 653 1014 737 379 164 407 917 944 501 478 179 253 576 907 291 371 495
