1297.0 140 678 634 115 328 297 659 403 147 661 648 1039 612 543 344 618 230 797 25 235 643 326 288 584 948 801 1021 770 904 556 486 965 750 210 630 530 50 682 248 370 490 266 519 788 296 783 746 846 595 218 285 841 883 411 897 513 374 845 954 441 319 19 348 872 733 949 619 802 1011 826 980 575 254 197 736 824 423 164 372 458 964 549 629 275 140 262 310 730 548 757 470 809 775 383 744 694 804 273 438 939 224 177 1030 341 599 193 828 301 421 763 442 402 256 289 942 680 642 241 489 525 541 781 257 445 547 592 795 552 334 367 390 981 280 784 68 192 635 333 475 462 790 
470.0 5 179 658 668 290 304 
8396.0 282 2 474 187 1036 742 571 718 211 8 1002 959 811 70 886 335 151 236 535 94 686 418 726 452 499 977 594 534 854 428 195 644 414 565 1025 938 1014 875 305 134 639 885 660 449 76 674 527 277 952 596 968 545 223 774 239 107 768 925 320 907 704 697 669 998 247 373 18 279 832 650 606 890 649 111 408 178 847 996 855 515 799 974 600 229 745 204 156 590 806 860 540 439 161 371 940 512 131 133 97 962 86 498 624 13 337 463 990 206 723 655 16 621 539 142 387 761 351 110 397 114 546 182 858 805 765 688 557 665 842 322 707 160 857 400 748 573 588 741 1017 967 917 859 51 735 119 434 622 645 562 899 1037 713 613 560 491 791 937 153 453 5 1013 706 272 40 43 646 102 988 130 9 927 1000 12 406 488 146 126 913 448 284 143 378 585 63 38 663 662 894 623 282 345 205 614 924 1020 985 970 943 243 636 323 976 850 819 951 39 201 312 456 264 607 673 268 684 194 700 994 316 532 671 522 437 729 829 100 29 654 812 10 878 167 3 572 30 352 627 361 314 566 800 181 536 570 563 708 849 516 882 587 716 391 559 955 961 633 945 460 92 379 251 503 957 216 676 760 221 749 518 509 307 719 901 35 1007 190 483 159 508 246 887 714 865 484 
7871.0 278 359 798 641 228 129 1028 603 983 415 6 56 26 253 388 354 480 386 15 691 410 862 896 928 37 762 722 773 1015 888 687 836 496 95 517 758 311 743 793 739 149 914 469 163 208 309 85 52 123 918 298 185 637 90 202 582 583 610 558 533 342 175 24 500 728 343 577 772 537 136 78 338 638 127 605 395 830 766 158 969 1010 467 422 574 416 931 120 346 325 514 789 979 529 911 711 835 869 476 191 879 1035 999 349 232 61 579 84 933 672 240 958 430 586 433 695 150 303 59 689 973 45 950 231 198 362 891 180 34 186 971 69 212 14 808 608 308 407 580 139 895 157 727 683 22 47 720 838 358 1024 255 816 368 413 276 892 106 905 457 820 1032 664 87 173 425 155 174 234 77 657 122 593 79 11 220 473 227 329 506 281 482 420 57 1006 555 27 803 507 724 651 300 777 162 531 292 796 1003 117 900 315 702 417 318 698 1005 213 327 287 934 576 357 242 291 237 520 544 524 7 871 1034 752 647 815 17 986 98 1031 843 321 932 135 0 956 581 831 366 1009 138 176 997 992 893 154 401 504 380 364 601 902 598 776 756 64 880 848 274 912 764 681 511 501 377 80 825 339 55 1040 853 396 91 944 189 429 984 302 628 472 455 710 21 
30293.0 337 978 492 693 42 1 132 1026 930 125 675 33 4 394 909 666 817 868 851 250 145 389 578 41 873 294 721 597 23 217 269 60 330 916 626 989 431 271 616 209 822 620 874 96 405 54 478 32 709 567 360 443 172 747 260 966 89 196 381 369 82 219 62 740 200 505 526 1022 83 1001 81 818 419 903 306 568 876 738 409 214 538 313 118 863 93 528 450 975 922 941 105 355 365 632 814 881 258 813 1008 299 183 382 898 561 116 88 244 692 103 424 870 141 225 991 440 58 283 569 1016 1033 685 715 1027 521 31 609 877 152 493 502 267 753 821 108 778 589 487 46 74 884 72 317 947 699 137 696 477 399 982 591 787 166 1038 755 188 1018 461 910 49 435 734 459 75 780 936 827 1004 611 840 347 782 1019 995 861 767 810 866 36 935 615 28 679 65 454 398 184 553 1029 170 705 1012 53 690 926 769 833 67 336 464 617 436 20 703 751 792 233 908 602 923 238 471 112 465 844 128 542 203 446 168 66 972 889 712 385 929 725 640 252 73 451 199 677 754 667 207 278 356 867 426 353 779 497 1023 412 604 495 148 1041 447 481 71 523 332 222 717 295 340 363 625 144 215 564 656 226 104 993 834 479 823 794 953 249 915 113 510 920 404 427 786 771 919 121 554 946 350 270 109 807 261 864 468 259 101 444 551 960 265 987 852 324 124 169 485 737 263 286 631 384 99 856 701 921 731 550 963 48 494 44 785 670 171 732 293 375 331 393 653 652 432 906 165 466 839 245 392 837 759 376
